0.400 100.000
0.800 99.900
10.000 61.700
10.400 48.200
10.800 40.600
11.200 26.900
11.600 17.400
1.200 100.000
12.000 13.400
12.400 6.500
12.800 3.600
13.200 1.300
13.600 .800
14.000 .600
14.400 0
14.800 0
15.200 .200
15.600 .100
1.600 99.900
16.000 0
2.000 100.000
2.400 100.000
2.800 99.800
3.200 100.000
3.600 100.000
4.000 100.000
4.400 100.000
4.800 100.000
5.200 100.000
5.600 99.900
6.000 100.000
6.400 100.000
6.800 99.800
7.200 99.500
7.600 99.000
8.000 97.200
8.400 94.800
8.800 91.000
9.200 82.400
9.600 77.100
