0.100 100.000
0.200 100.000
0.300 100.000
0.400 100.000
0.500 100.000
0.600 100.000
0.700 100.000
0.800 100.000
0.900 99.700
1.000 99.700
1.100 99.600
1.200 99.300
1.300 99.100
1.400 97.700
1.500 95.500
1.600 93.500
1.700 92.400
1.800 85.100
1.900 80.900
2.000 77.000
2.100 68.300
2.200 61.000
2.300 59.000
2.400 49.000
2.500 40.900
2.600 35.200
2.700 27.900
2.800 23.600
2.900 20.200
3.000 15.700
3.100 11.900
3.200 9.300
3.300 5.600
3.400 5.900
3.500 5.100
3.600 2.600
3.700 2.000
3.800 2.000
3.900 1.100
4.000 .500
