0.025 100.000
0.050 100.000
0.075 99.800
0.100 99.200
0.125 99.100
0.150 97.900
0.175 97.600
0.200 96.100
0.225 95.100
0.250 94.200
0.275 93.000
0.300 90.500
0.325 89.400
0.350 86.700
0.375 82.100
0.400 81.300
0.425 76.500
0.450 71.300
0.475 67.900
0.500 63.200
0.525 60.100
0.550 53.000
0.575 45.300
0.600 40.200
0.625 34.500
0.650 32.600
0.675 24.900
0.700 19.400
0.725 15.300
0.750 13.100
0.775 10.600
0.800 7.200
0.825 3.800
0.850 2.800
0.875 1.400
0.900 .600
0.925 .400
0.950 0
0.975 0
1.000 0
