0.100 100.000
0.300 100.000
0.500 100.000
0.700 100.000
0.900 99.000
1.100 93.000
1.300 97.000
1.500 92.000
1.700 85.000
1.900 73.000
2.100 60.000
2.300 42.000
2.500 30.000
2.700 15.000
2.900 4.000
3.100 0
3.300 0
3.500 0
3.700 0
3.900 0
