0.100 100.000
0.300 100.000
0.500 100.000
0.700 100.000
0.900 100.000
1.100 98.000
1.300 99.000
1.500 98.000
1.700 98.000
1.900 84.000
2.100 77.000
2.300 61.000
2.500 38.000
2.700 26.000
2.900 11.000
3.100 4.000
3.300 0
3.500 0
3.700 0
3.900 0
