0.100 100.000
0.200 100.000
0.300 100.000
0.400 100.000
0.500 100.000
0.600 100.000
0.700 99.900
0.800 99.500
0.900 99.700
1.000 98.900
1.100 99.000
1.200 98.300
1.300 96.500
1.400 95.200
1.500 92.800
1.600 87.800
1.700 86.700
1.800 82.500
1.900 75.600
2.000 70.700
2.100 64.600
2.200 55.300
2.300 49.600
2.400 40.600
2.500 36.300
2.600 27.400
2.700 23.100
2.800 17.300
2.900 13.200
3.000 10.200
3.100 8.700
3.200 6.800
3.300 3.900
3.400 3.000
3.500 2.300
3.600 1.200
3.700 .700
3.800 .700
3.900 .400
4.000 .200
