0.050 100.000
0.150 100.000
0.250 100.000
0.350 100.000
0.450 100.000
0.550 100.000
0.650 98.000
0.750 100.000
0.850 99.000
0.950 99.000
1.050 98.000
1.150 100.000
1.250 90.000
1.350 94.000
1.450 88.000
1.550 79.000
1.650 77.000
1.750 70.000
1.850 59.000
1.950 47.000
