0.050 100.000
0.100 100.000
0.150 100.000
0.200 99.800
0.250 99.800
0.300 99.800
0.350 99.500
0.400 99.400
0.450 99.500
0.500 97.400
0.550 97.800
0.600 97.300
0.650 96.600
0.700 95.500
0.750 93.400
0.800 91.200
0.850 89.100
0.900 84.500
0.950 81.200
1.000 77.200
1.050 72.800
1.100 67.800
1.150 60.600
1.200 50.900
1.250 45.000
1.300 43.400
1.350 33.600
1.400 26.900
1.450 21.400
1.500 17.200
1.550 11.300
1.600 7.500
1.650 4.200
1.700 2.700
1.750 1.000
1.800 .200
1.850 0
1.900 0
1.950 0
2.000 0
