0.050 100.000
0.100 100.000
0.150 99.900
0.200 99.800
0.250 99.900
0.300 99.900
0.350 99.500
0.400 99.500
0.450 99.200
0.500 97.600
0.550 97.400
0.600 97.400
0.650 96.400
0.700 95.600
0.750 94.000
0.800 91.000
0.850 88.900
0.900 85.300
0.950 82.800
1.000 78.500
1.050 74.600
1.100 69.300
1.150 63.200
1.200 55.300
1.250 48.300
1.300 46.100
1.350 36.700
1.400 27.800
1.450 22.900
1.500 18.900
1.550 12.800
1.600 9.900
1.650 5.400
1.700 3.000
1.750 1.000
1.800 .400
1.850 0
1.900 0
1.950 0
2.000 0
